<svg id="Ebene_1" data-name="Ebene 1" xmlns="http://www.w3.org/2000/svg" viewBox="0 0 96.56 29.02">
  <defs>
    <style>
      .cls-1 {
        fill: #989898;
      }
    </style>
  </defs>
  <g>
    <rect class="cls-1" x="38.81" y="17.51" width="32.02" height="0.22"/>
    <polygon class="cls-1" points="33.59 3.4 33.74 3.34 33.77 3.34 33.59 3.4"/>
    <polygon class="cls-1" points="33.29 3.53 33.35 3.49 33.37 3.49 33.29 3.53"/>
    <polygon class="cls-1" points="33.13 3.59 33.15 3.57 33.16 3.57 33.13 3.59"/>
    <path class="cls-1" d="M31.14,11.26a2.74,2.74,0,0,1,0-2.19,7.14,7.14,0,0,1,.94-1.82A6.28,6.28,0,0,1,33.3,6a5,5,0,0,1,.87-.62,5.52,5.52,0,0,1,.54-.16c.2,0,.41.08.59,0s.1-.13.05-.21-.29-.24-.52-.25a2.08,2.08,0,0,0-1,.31,8.29,8.29,0,0,0-3.36,4v.15l0,0c-.05.08,0,.17-.07.24l0,0,0,0s0,.07,0,.1l0,.17s0-.06,0,0,0,.05,0,.07h0c0,.18,0,.37,0,.57-.1-.1,0-.31,0-.41l0,0s0,.09,0,.14a3.08,3.08,0,0,1-.09-1.28,5.24,5.24,0,0,1,1-2.36c.16-.18.35-.35.51-.5s.21.06.31.09a.55.55,0,0,0,.49-.11.69.69,0,0,0,.16-.67c0-.14,0-.25,0-.39h0c-.15-.32.33-.3.48-.5.06,0,.12-.11.21-.11a2.23,2.23,0,0,0,.4-.16,4.56,4.56,0,0,1,.71-.21h0s0,0,0,0h0l0,0,0,0a1.09,1.09,0,0,1,.62,0h-.23a1.2,1.2,0,0,0,.27,0c.24.11.55.07.72.31v.07a2.15,2.15,0,0,1,.83.78c.27.22.31.54.48.84,0,0,0,.05,0,.08,0,.18.06.33.06.52a5.21,5.21,0,0,1,0,1.42,3.08,3.08,0,0,1-.47,1.29,3.79,3.79,0,0,1-.44.71,5.39,5.39,0,0,1-3.6,2c-.61,0-1.3,0-1.57-.61m.15-7.33c.06,0,.14-.08.2,0a.87.87,0,0,1,.12.44A11.71,11.71,0,0,0,30.2,5.82a10.43,10.43,0,0,1,1.09-1.89M34.58,13c-.06,0-.1.06-.13,0a5.53,5.53,0,0,1-2.14-.57,6.66,6.66,0,0,0,4-1.85,8,8,0,0,0,.75-.79h0c.07,0,0-.14.12-.15a4.41,4.41,0,0,0,.25-.39c0-.15.26-.26.22-.43s.07-.15.11-.24.18-.27.13-.44,0-.28.1-.34,0-.1,0-.15,0-.33.07-.47a.36.36,0,0,1,0-.25s0-.12,0-.15l0,0h0s0,0,0-.08l0,0A2.54,2.54,0,0,0,37.9,6c0-.13-.09-.3-.14-.43s-.09,0,0-.09a3.47,3.47,0,0,0-.49-.88c0-.09-.12,0-.08-.12A6.23,6.23,0,0,0,36.65,4a3.27,3.27,0,0,0-1.06-.47,5.13,5.13,0,0,0-.8-.32l.08,0c-.07,0-.13,0-.14,0s-.25,0-.39,0v0c-.16.09-.39,0-.55.14a1.09,1.09,0,0,1,.26,0,.05.05,0,0,1,0,0s0,0,0,0,0,0,0,0c-.14,0-.15.12-.29.07-.29.12-.59.23-.92.38-.11,0-.25.08-.33.13a3.81,3.81,0,0,0-.34-.58,1.6,1.6,0,0,0-1.06-.55c0,.06-.12,0-.18,0a6.86,6.86,0,0,0-.59.61,9.07,9.07,0,0,0-1.22,2.19c0,.19-.17.3-.17.46s-.05.15-.1.24a6.22,6.22,0,0,1-.26.76l0,0c-.06.05,0,.06,0,.11s-.07.14-.08.18h0v.08h0s0,0,0,.07l-.05,0s0,.08,0,.08L28.31,8l0,0c-.18.53-.37,1.08-.58,1.6v0l0,0,.05,0-.05.11v0h0l0,.09c0,.16-.11.25-.19.42l.09-.05c-.06.06,0,.2-.12.21s-.05,0,0,0a.14.14,0,0,0-.07.11c-.08,0-.06.11-.05.15s0,.05-.05.07h0l-.11.24c-.1,0,0,.12-.11.14h0s0,.08-.07,0c-.07.12-.15.27-.21.4s-.16.33-.37.26c0-.07-.09,0-.12,0a.42.42,0,0,0-.39-.14c-.23-.05-.21-.37-.24-.55s-.09-.52-.05-.8c-.05,0,0-.05,0-.07s0-.12,0-.19a9.25,9.25,0,0,0,0-1.49,3.11,3.11,0,0,1-.08-.74c0-.52-.12-1.16-.19-1.73,0-.24-.11-.52,0-.77a.14.14,0,0,0,.05-.14c0-.06-.09,0-.08-.11a.37.37,0,0,0-.29,0,.72.72,0,0,0-.4.69,12.93,12.93,0,0,0,.24,2,12.76,12.76,0,0,1-.06,4c.08.13,0,.25.11.34-.05.07.08.13.06.19h0c-.08.09.11.09.15.15a3.84,3.84,0,0,0,.73.56c.14.13.33,0,.5,0,.22-.15.5,0,.71-.17,0-.15.25-.09.27-.26.26-.19.34-.49.58-.74.24-.49.54-1,.73-1.48a4.44,4.44,0,0,0,.27-.72c.1-.15.15-.34.24-.5s0-.08,0-.1a4.44,4.44,0,0,0,1,2.41,5,5,0,0,0,1.51,1.2,8.59,8.59,0,0,0,2.56.72c.12,0,.33,0,.45,0h0A9.11,9.11,0,0,0,36,13.2a.2.2,0,0,1,.2,0c.21-.09.46-.16.68-.25.5-.11.75-.53,1.2-.73v0a6.54,6.54,0,0,1-3.5.85M38,6.63Z"/>
    <rect class="cls-1" x="28.4" y="7.53" width="0.01" height="0.05"/>
    <rect class="cls-1" x="38.04" y="7.53" width="0.01" height="0.02"/>
    <path class="cls-1" d="M28.33,7.71v0Z"/>
    <path class="cls-1" d="M28.08,8.45l0,.1Z"/>
    <path class="cls-1" d="M28,8.63v0Z"/>
    <path class="cls-1" d="M27.84,9.15l0,0Z"/>
    <path class="cls-1" d="M27.81,9.22l0,.1Z"/>
    <polygon class="cls-1" points="27.74 9.46 27.75 9.4 27.74 9.45 27.74 9.46"/>
    <path class="cls-1" d="M30.32,9.5s0,0,0-.07Z"/>
    <path class="cls-1" d="M30.31,9.54s0,.06,0,0,0-.05,0,0"/>
    <polygon class="cls-1" points="30.24 9.82 30.27 9.73 30.27 9.8 30.24 9.82"/>
    <path class="cls-1" d="M27.64,9.73l0,.09Z"/>
    <polygon class="cls-1" points="24.8 12.22 24.77 12.19 24.79 12.19 24.8 12.22"/>
    <polygon class="cls-1" points="40.3 4.68 41.86 4.68 41.04 8.44 41.05 8.44 42.53 6.6 44.28 6.6 42.45 8.7 43.6 10.96 41.89 10.96 40.98 8.8 40.96 8.8 40.49 10.96 38.93 10.96 40.3 4.68"/>
    <path class="cls-1" d="M49.52,9.82c-.07.38-.14.75-.18,1.14H47.91l.12-.71h0a2.09,2.09,0,0,1-1.71.81,1.35,1.35,0,0,1-1.38-1.5A3.6,3.6,0,0,1,45,8.64l.41-2H47l-.42,2.05a2.84,2.84,0,0,0-.1.66c0,.26.17.51.59.5.65,0,1-.55,1.15-1.2l.43-2h1.54Z"/>
    <polygon class="cls-1" points="52.33 4.68 53.88 4.68 52.55 10.96 51 10.96 52.33 4.68"/>
    <path class="cls-1" d="M54.74,6.6h.88l.22-.94,1.62-.42L57.15,6.6h1.06L58,7.66H56.9l-.26,1.21a3.93,3.93,0,0,0-.13.75.46.46,0,0,0,.5.49,1.48,1.48,0,0,0,.5-.13l-.17,1a6.43,6.43,0,0,1-1,.08c-.78,0-1.41-.37-1.41-1.28a4.29,4.29,0,0,1,.14-.9l.27-1.22h-.82Z"/>
    <path class="cls-1" d="M63.35,9.82c-.08.38-.14.75-.19,1.14H61.74l.12-.71h0a2.09,2.09,0,0,1-1.71.81,1.36,1.36,0,0,1-1.39-1.5,4.12,4.12,0,0,1,.12-.92l.41-2h1.59l-.43,2.05a3.5,3.5,0,0,0-.1.66c0,.26.17.51.6.5.65,0,1-.55,1.14-1.2l.44-2H64Z"/>
    <path class="cls-1" d="M67,6.6l-.17.9h0a1.64,1.64,0,0,1,1.38-1,1.89,1.89,0,0,1,.65.11l-.35,1.33a1.1,1.1,0,0,0-.71-.18c-.65,0-1,.55-1.15,1.19l-.43,2H64.66l.7-3.22c.07-.38.14-.74.18-1.14Z"/>
    <polygon class="cls-1" points="39.28 14.01 39.49 14.01 39.21 15.28 39.83 15.28 39.79 15.47 38.96 15.47 39.28 14.01"/>
    <path class="cls-1" d="M40.55,15.33c.22,0,.39-.25.39-.49a.28.28,0,0,0-.27-.31c-.27,0-.4.28-.4.5a.27.27,0,0,0,.28.3m.12-1a.45.45,0,0,1,.49.47.6.6,0,0,1-.61.65.44.44,0,0,1-.5-.47.61.61,0,0,1,.62-.65"/>
    <path class="cls-1" d="M41.43,14.4h.24l0-.25.22-.07-.07.32h.3l0,.16h-.3l-.1.46a.79.79,0,0,0,0,.2c0,.07,0,.11.15.11l.14,0,0,.16a.65.65,0,0,1-.2,0,.23.23,0,0,1-.26-.23,2,2,0,0,1,0-.26l.09-.44H41.4Z"/>
    <path class="cls-1" d="M42.27,14.4h.24l.05-.25.22-.07-.07.32H43l0,.16h-.3l-.1.46a1.77,1.77,0,0,0,0,.2c0,.07.05.11.15.11l.14,0,0,.16a.62.62,0,0,1-.2,0,.23.23,0,0,1-.26-.23,2,2,0,0,1,0-.26l.1-.44h-.24Z"/>
    <path class="cls-1" d="M43.85,14.83v-.08a.2.2,0,0,0-.23-.22.37.37,0,0,0-.33.3Zm0,.62a1.65,1.65,0,0,1-.32,0,.44.44,0,0,1-.5-.48.62.62,0,0,1,.6-.64.37.37,0,0,1,.4.41,1.27,1.27,0,0,1,0,.2h-.77s0,0,0,.07c0,.22.14.28.34.28a.85.85,0,0,0,.31-.06Z"/>
    <path class="cls-1" d="M44.41,14.56s0-.1,0-.16h.19l0,.17h0a.42.42,0,0,1,.37-.2l.09,0,0,.18a.18.18,0,0,0-.09,0c-.25,0-.37.26-.39.39l-.12.53h-.2Z"/>
    <path class="cls-1" d="M45.57,14.16h-.22l0-.22h.23Zm-.26.24h.2l-.23,1.07h-.2Z"/>
    <path class="cls-1" d="M46.49,14.83a.25.25,0,0,0,0-.08.21.21,0,0,0-.23-.22.38.38,0,0,0-.34.3Zm0,.62a1.86,1.86,0,0,1-.33,0,.44.44,0,0,1-.5-.48.62.62,0,0,1,.6-.64.38.38,0,0,1,.41.41,1.23,1.23,0,0,1,0,.2h-.77v.07c0,.22.14.28.33.28a.85.85,0,0,0,.31-.06Z"/>
    <path class="cls-1" d="M47.18,14.56h-.26l0-.16h.26l0-.11c0-.17.12-.42.43-.42l.16,0,0,.15-.09,0c-.18,0-.23.14-.25.27l0,.1h.29l0,.16h-.29l-.2.91H47Z"/>
    <path class="cls-1" d="M48.22,15.33a.47.47,0,0,0,.4-.49.28.28,0,0,0-.28-.31c-.26,0-.4.28-.4.5a.27.27,0,0,0,.28.3m.13-1a.45.45,0,0,1,.49.47.6.6,0,0,1-.61.65.44.44,0,0,1-.5-.47.6.6,0,0,1,.62-.65"/>
    <path class="cls-1" d="M49.21,14.56s0-.1,0-.16h.19l0,.17h0a.42.42,0,0,1,.37-.2.32.32,0,0,1,.36.34,1.5,1.5,0,0,1,0,.2l-.12.56h-.2l.13-.64a.41.41,0,0,0,0-.1.19.19,0,0,0-.2-.2c-.24,0-.37.27-.39.4l-.12.54H49Z"/>
    <path class="cls-1" d="M50.84,15.33c.25,0,.37-.3.37-.51a.28.28,0,0,0-.28-.29c-.23,0-.36.3-.36.5a.27.27,0,0,0,.27.3m.51-.22-.06.36H51.1a.94.94,0,0,1,0-.16h0a.39.39,0,0,1-.38.18.4.4,0,0,1-.4-.44.61.61,0,0,1,.56-.68.37.37,0,0,1,.35.2h0l.14-.67h.2Z"/>
    <path class="cls-1" d="M52.35,14.59a.55.55,0,0,0-.22-.06c-.09,0-.21,0-.21.13s.38.19.38.49-.24.34-.42.34a.73.73,0,0,1-.31-.05l0-.17a.76.76,0,0,0,.25.06c.11,0,.23,0,.23-.16s-.37-.21-.37-.48.23-.32.41-.32a.94.94,0,0,1,.29.06Z"/>
    <polygon class="cls-1" points="53.45 14.01 53.67 14.01 53.52 14.65 53.53 14.65 54.24 14.01 54.52 14.01 53.72 14.73 54.31 15.47 54.04 15.47 53.5 14.77 53.35 15.47 53.13 15.47 53.45 14.01"/>
    <path class="cls-1" d="M55.1,15c-.15,0-.38,0-.38.24s.09.14.18.14.33-.2.36-.38Zm-.34-.52a1.3,1.3,0,0,1,.31-.06c.22,0,.43.09.43.34a1,1,0,0,1,0,.17c0,.2-.09.4-.11.59h-.19l0-.18h0a.39.39,0,0,1-.35.2c-.19,0-.35-.09-.35-.29s.28-.39.65-.39h.14s0,0,0-.07-.1-.21-.25-.21a.7.7,0,0,0-.33.09Z"/>
    <path class="cls-1" d="M55.92,14.56s0-.1,0-.16h.19l0,.17h0a.45.45,0,0,1,.38-.2.32.32,0,0,1,.36.34.75.75,0,0,1,0,.2l-.12.56h-.2l.14-.64s0-.08,0-.1a.19.19,0,0,0-.2-.2c-.25,0-.37.27-.4.4l-.11.54h-.2Z"/>
    <path class="cls-1" d="M57.12,14.4h.25l.05-.25.22-.07-.07.32h.3l0,.16h-.31l-.1.46a1.62,1.62,0,0,0,0,.2c0,.07.05.11.15.11l.14,0,0,.16a.65.65,0,0,1-.2,0,.23.23,0,0,1-.26-.23,2,2,0,0,1,0-.26l.09-.44H57.1Z"/>
    <path class="cls-1" d="M58.4,15.33a.47.47,0,0,0,.4-.49.29.29,0,0,0-.28-.31c-.27,0-.4.28-.4.5a.27.27,0,0,0,.28.3m.13-1a.44.44,0,0,1,.48.47.6.6,0,0,1-.61.65.44.44,0,0,1-.49-.47.6.6,0,0,1,.62-.65"/>
    <path class="cls-1" d="M59.39,14.56s0-.1,0-.16h.19l0,.17h0a.42.42,0,0,1,.37-.2.32.32,0,0,1,.36.34.75.75,0,0,1,0,.2l-.12.56H60l.14-.64s0-.08,0-.1a.19.19,0,0,0-.2-.2c-.25,0-.37.27-.4.4l-.11.54h-.2Z"/>
    <path class="cls-1" d="M62.07,14.24a.46.46,0,0,0-.27-.08c-.15,0-.3.06-.3.23s.51.25.51.63a.48.48,0,0,1-.52.47,1.19,1.19,0,0,1-.41-.08l.07-.19a.66.66,0,0,0,.31.09c.23,0,.32-.14.32-.26,0-.3-.51-.25-.51-.65a.46.46,0,0,1,.5-.42.92.92,0,0,1,.36.07Z"/>
    <path class="cls-1" d="M62.71,15.33a.47.47,0,0,0,.4-.49.29.29,0,0,0-.28-.31c-.26,0-.4.28-.4.5a.27.27,0,0,0,.28.3m.13-1a.44.44,0,0,1,.48.47.59.59,0,0,1-.6.65.44.44,0,0,1-.5-.47.6.6,0,0,1,.62-.65"/>
    <polygon class="cls-1" points="63.86 13.9 64.06 13.9 63.72 15.47 63.52 15.47 63.86 13.9"/>
    <path class="cls-1" d="M64.63,15.33a.47.47,0,0,0,.4-.49.29.29,0,0,0-.28-.31c-.26,0-.4.28-.4.5a.27.27,0,0,0,.28.3m.13-1a.44.44,0,0,1,.48.47.59.59,0,0,1-.61.65.44.44,0,0,1-.49-.47.6.6,0,0,1,.62-.65"/>
    <path class="cls-1" d="M65.51,14.4h.24l.06-.25.21-.07L66,14.4h.29l0,.16h-.3l-.1.46a1.62,1.62,0,0,0,0,.2c0,.07,0,.11.14.11l.15,0,0,.16a.65.65,0,0,1-.2,0,.23.23,0,0,1-.26-.23,1.09,1.09,0,0,1,0-.26l.09-.44h-.24Z"/>
    <path class="cls-1" d="M66.6,13.9h.21l-.14.63h0a.45.45,0,0,1,.35-.16.32.32,0,0,1,.36.34,1.5,1.5,0,0,1,0,.2l-.12.56H67l.14-.64a.41.41,0,0,0,0-.1.19.19,0,0,0-.2-.2c-.25,0-.37.27-.4.4l-.11.54h-.2Z"/>
    <path class="cls-1" d="M68.57,15.3a.86.86,0,0,0,0,.17h-.19l0-.17h0a.42.42,0,0,1-.37.19c-.22,0-.37-.11-.37-.33a1.38,1.38,0,0,1,0-.2l.12-.56H68l-.14.64s0,.08,0,.1a.19.19,0,0,0,.2.19c.25,0,.37-.26.4-.39l.12-.54h.2Z"/>
    <path class="cls-1" d="M69.09,14.56s0-.1,0-.16h.19l0,.17h0a.42.42,0,0,1,.37-.2l.09,0,0,.18a.15.15,0,0,0-.08,0c-.25,0-.37.26-.4.39l-.11.53h-.2Z"/>
    <path class="cls-1" d="M69.93,14.56s0-.1,0-.16h.19l0,.17h0a.42.42,0,0,1,.37-.2.32.32,0,0,1,.36.34,1.5,1.5,0,0,1,0,.2l-.12.56h-.2l.13-.64a.41.41,0,0,0,0-.1.19.19,0,0,0-.2-.2c-.25,0-.37.27-.39.4l-.12.54h-.2Z"/>
    <path class="cls-1" d="M66.68,23.27a3.37,3.37,0,0,0,1.65.61c.3,0,.54-.06.54-.3s-.18-.28-.65-.42c-.75-.23-1.51-.48-1.51-1.33,0-.65.6-1.17,1.63-1.17a3.57,3.57,0,0,1,1.32.27v.94a3.58,3.58,0,0,0-1.32-.29c-.32,0-.46.08-.46.25s.18.23.55.35c.76.25,1.62.54,1.62,1.4s-.63,1.22-1.71,1.22a3.06,3.06,0,0,1-1.66-.48Zm-2.53-1.74c-.63,0-.79.46-.79,1.2s.16,1.2.79,1.2.79-.46.79-1.2-.16-1.2-.79-1.2m0,3.27c-1.39,0-1.88-.84-1.88-2.07s.49-2.07,1.88-2.07S66,21.5,66,22.73s-.49,2.07-1.88,2.07m-2.26-1v.91H59.1v-4h1.09v3.09ZM55,23.27a3.37,3.37,0,0,0,1.65.61c.31,0,.54-.06.54-.3s-.17-.28-.64-.42c-.76-.23-1.52-.48-1.52-1.33,0-.65.61-1.17,1.63-1.17a3.53,3.53,0,0,1,1.32.27v.94a3.57,3.57,0,0,0-1.31-.29c-.32,0-.46.08-.46.25s.18.23.55.35c.75.25,1.61.54,1.61,1.4s-.63,1.22-1.71,1.22A3.09,3.09,0,0,1,55,24.32Zm-3.89,0a3.36,3.36,0,0,0,1.66.61c.3,0,.53-.06.53-.3s-.17-.28-.64-.42c-.76-.23-1.52-.48-1.52-1.33,0-.65.61-1.17,1.63-1.17a3.53,3.53,0,0,1,1.32.27v.94a3.57,3.57,0,0,0-1.31-.29c-.32,0-.46.08-.46.25s.18.23.55.35c.75.25,1.61.54,1.61,1.4s-.63,1.22-1.71,1.22a3.12,3.12,0,0,1-1.66-.48Zm-.9,1.46H49.1v-4h1.09ZM45.46,21.6h.66l.75,1.32.26-2.19h1l-.5,4h-.84l-1-1.81-1,1.81H43.9l-.49-4h1l.25,2.19Zm-6,1.67a3.39,3.39,0,0,0,1.66.61c.3,0,.54-.06.54-.3s-.18-.28-.65-.42c-.76-.23-1.51-.48-1.51-1.33,0-.65.6-1.17,1.63-1.17a3.62,3.62,0,0,1,1.32.27v.94a3.62,3.62,0,0,0-1.32-.29c-.32,0-.46.08-.46.25s.18.23.55.35c.76.25,1.62.54,1.62,1.4s-.64,1.22-1.71,1.22a3.13,3.13,0,0,1-1.67-.48Zm30.95-.83v-2l-.5-.19a4.38,4.38,0,0,0-1.6-.32,2.72,2.72,0,0,0-1.67.5,1.81,1.81,0,0,0-.41.42,2.5,2.5,0,0,0-2.11-.92c-1.69,0-2.65,1-2.65,2.84,0,.11,0,.22,0,.32H61V20H58.33v.29l-.09,0a4.38,4.38,0,0,0-1.6-.32,2.72,2.72,0,0,0-1.67.5l-.06,0-.06,0-.5-.2a4.38,4.38,0,0,0-1.6-.32,2.72,2.72,0,0,0-1.67.5l-.12.1V20H46.44l-.08.69,0,.18h-1.1l0-.18L45.14,20H42.53l0,.19a4.11,4.11,0,0,0-1.39-.25,2.7,2.7,0,0,0-1.67.5,1.87,1.87,0,0,0-.78,1.44v2.94l.38.22a4,4,0,0,0,2.06.58,2.65,2.65,0,0,0,2-.71l.08.64h2l.22-.38.37-.64.36.64.23.38H51v-.36a3.93,3.93,0,0,0,1.79.43A2.75,2.75,0,0,0,54.59,25a4,4,0,0,0,2,.58,2.93,2.93,0,0,0,1.69-.46v.39h4.33v-.29a2.88,2.88,0,0,0,1.49.36,2.58,2.58,0,0,0,1.92-.7l.21.12a4,4,0,0,0,2.06.58c1.72,0,2.48-1,2.48-2a1.77,1.77,0,0,0-.38-1.14"/>
  </g>
</svg>
